\relax 
\citation{1}
\citation{2}
\citation{2}
\bibcite{1}{1}
\bibcite{2}{2}
\@writefile{lof}{\contentsline {figure}{\numberline {1}{\ignorespaces \textbf  {Left:} PLT $\sigma _{vis}$ as a function of SBIL in Fill 6362, both scans. \textbf  {Center:} Per-scan slope of PLT $\sigma _{vis}(SBIL)$. \textbf  {Right:} Avg. PLT $\sigma _{vis}$ per fill for all data from 2017.}}{1}}
